item_id,barcode
1,
2,802800998
3,
4,
5,
6,
7,
8,
9,
10,
11,
12,
13,
14,
15,
16,
17,
18,
19,
20,
21,
22,
23,
24,
25,
26,
27,
28,
29,
30,
31,
32,
33,
34,
35,
36,
37,
38,
39,
40,
41,
42,
43,
44,
45,
46,
47,
48,
49,
50,
51,
52,
53,
54,
55,33401963X
56,
57,2161427
58,6243002
59,571092322
60,
61,
62,
63,
64,
65,
66,
67,
68,
69,
70,9780860654513
71,891072330
72,854214054
73,854214054
74,340126019
75,340192291
76,340170174
77,9780860653417
78,340163836
79,851103472
80,
81,9780310518082
82,
83,
84,
85,
86,
87,
88,
89,
90,853630909
91,9971972670
92,853631115
93,853630984
94,853630461
95,853630615
96,
97,853630860
98,
99,853630712
100,
101,
102,853630313
103,853630119
104,853630232
105,853630496
106,853630216
107,085363145X
108,
109,853631131
110,853630550
111,85363050X
112,860652408
113,9971972166
114,
115,85363081X
116,None
117,None
118,None
119,None
120,None
121,None
122,None
123,9780340326404
124,None
125,None
126,None
127,None
128,340241837
129,853631077
130,9780851107752
131,9780853645399
132,9780851111629
133,9780802407283
134,9780225664768
135,936384417
136,9780225664706
137,9781553062226
138,9780851107189
139,9780851111551
140,9781882701537
141,9781844741830
142,9781844744213
143,9780851107677
144,9780851107677
145,9780851112381
146,862012511
147,9780340549971
148,9780825459993
149,9780340863367
150,9780340352779
151,9780860657767
152,9780830813650
153,9780826439215
154,9780521409704
155,9781844744077
156,9781854246370
157,9780281058778
158,9781847390929
159,9781852407131
160,842302433
161,9781856840460
162,9781853456176
163,9780768424270
164,9780674133983
165,9780571105656
166,9780099590088
167,9781784703936
168,9780099410690
169,9780099463368
170,9780340920046
171,9781854245687
172,9780851107585
173,9780140136005
174,9781870404075
175,9781908393449
176,9780061122439
177,961553405
178,9781854246400
179,9781581581911
180,9780854765386
181,9780851118949
182,9781433503184
183,877847967
184,9780768431049
185,9780851106717
186,9780768441291
187,9781581342598
188,9780099511687
189,None
190,9780830721498
191,9780446695503
192,340259558
193,9781844745203
194,9780940293724
195,9780801014956
196,9780310257479
197,900828455
198,9780851103136
199,9780851111582
200,340197137
201,9780340604083
202,9780340709924
203,9780340642092
204,9781844746095
205,9780851116518
206,9780830832392
207,None
208,9780854768486
209,9780854768578
210,9780854769070
211,None
212,None
213,None
214,None
215,None
216,None
217,None
218,None
219,None
220,None
221,None
222,None
223,9798105588059
224,9781576580127
225,9781576583814
226,9780927545068
227,927545101
228,9781576580066
229,9780927545051
230,927545438
231,9780927545921
232,9780860653264
233,9780860655442
234,9780860657767
235,9780551017252
236,852110111
237,9780310209300
238,9780340489727
239,9780340212912
240,9780340539644
241,9780340864272
242,9780007166664
243,9780340281963
244,9780340281987
245,9780860650164
246,9780902088276
247,9780842369299
248,9780854766703
249,9780860653875
250,9780860658740
251,9781842912850
252,9780854764945
253,9781842912881
254,9780854767861
255,9780854765546
256,9781852404987
257,9780006280835
258,9780830743650
259,9781934068250
260,9781577942054
261,856483567
262,9780745910185
263,9781857922233
264,9780340398357
265,9780860659457
266,9780854767564
267,9780860652052
268,9780860650829
269,9780860655398
270,9780340570753
271,9780860658092
272,9780854764815
273,9780340392744
274,9780340425909
275,9780340599860
276,9780340176382
277,9781506420738
278,9780825424724
279,5999952
280,9780060633875
281,60666919
282,9780334025511
283,9780340621332
284,340129077
285,9780340418482
286,None
287,9780851117577
288,9780802431202
289,9780875094915
290,9781932307313
291,9781400205172
292,9781595554789
293,9781595553188
294,9780687022267
295,9780687028108
296,9780687052967
297,9780340282014
298,9780340756393
299,9780340862933
300,9780340721445
301,9780340863275
302,9780340964101
303,9780340745465
304,9780340787076
305,9780340863329
306,9780340756287
307,9780340910177
308,9780340861943
309,9780851114248
310,9780851114200
311,9780851114286
312,9780851114767
313,9780851115108
314,9780851114880
315,9780851114675
316,9780851114484
317,9780851115184
318,9780851117676
319,9780851114736
320,9780830826148
321,9781844740222
322,801012643
323,9971972646
324,851116051
325,851116051
326,851116051
327,None
328,None
329,None
330,None
331,None
332,None
333,851118224
334,851118259
335,851118321
336,851116221
337,9780851118239
338,851513131
339,851511686
340,None
341,None
342,9780851510927
343,851515533
344,9971972867
345,9780851517391
346,9780851515953
347,085151104X
348,851510906
349,851510833
350,9781850783589
351,862011108
352,9780006531753
353,9780349112152
354,9780349113104
355,9781444750096
356,9780340862292
357,9780340786048
358,9780310231868
359,9780943575162
360,9781565631328
361,9780860658603
362,9781842913178
363,9780851112770
364,9780340909089
365,9780948476211
366,9780521521116
367,9781908594976
368,851512674
369,9781845503871
370,9781844740987
371,9780340556719
372,9781853211003
373,9780340995082
374,9780340608098
375,9780860658160
376,9780529112200
377,9780340735213
378,9781842911334
379,9781886973626
380,9781842271803
381,9781850781967
382,9781884543654
383,198338287
384,195046455
385,340228105
386,034025887X
387,034025887X
388,9780340354681
389,9780006266877
390,6210368
391,9780860656715
392,9780854767854
393,9780860653448
394,9780854768257
395,9780860654155
396,9780854768516
397,9780860656821
398,None
399,None
400,9781784980511
401,9781854241740
402,9789966165534
403,9781590521731
404,9780393304039
405,9781903725047
406,9781905991426
407,9781903725511
408,9781400202669
409,9780840731623
410,9780551031722
411,9780830719372
412,854790004
413,856480622
414,851105742
415,9781884543906
416,198369174
417,9781842277669
418,9781842276112
419,9781842273845
420,9781842275061
421,43310699
422,None
423,9781784980894
424,9780340671474
425,9781904889540
426,9781576737262
427,9781850784630
428,9780749005160
429,9780915815753
430,9780800786557
431,9781850787662
432,9780349123226
433,9781850786986
434,9781850789642
435,9781850784609
436,9781467001786
437,9781860243714
438,9781905991259
439,9788173628436
440,9780349112817
441,9780862015718
442,9780340612316
443,9780006514091
444,9781850785521
445,9781557280268
446,9781856840361
447,9781842272923
448,9780551026407
449,9781905564309
450,9187242877735
451,9780946462360
452,9780974215617
453,9781850491279
454,9780340610602
455,720803071
456,551010428
457,9781859948187
458,9781906173852
459,9781907377334
460,9781875861552
461,715200062
462,9780567085375
463,9780567087164
464,9781414104409
465,9780801071638
466,9781844745708
467,9780830716586
468,None
469,9781842272046
470,9780957790551
471,9780340410639
472,9780877847335
473,9780853646358
474,9780851115566
475,9780851119915
476,9781844749058
477,9780857085382
478,9781625647795
479,9781844740970
480,340181036
481,9780061300677
482,9780764205675
483,9780801017018
484,9781870944175
485,9781870944168
486,9781870944151
487,818904852
488,71316381
489,9780851111408
490,9780241279205
491,9780670919512
492,9780877881230
493,9781909961425
494,9780060638801
495,None
496,None
497,None
498,None
499,None
500,None
501,None
502,None
503,None
504,None
505,None
506,None
507,None
508,None
509,None
510,None
511,None
512,None
513,None
514,None
515,None
516,None
517,None
518,None
519,9780851511054
520,9780851513867
521,9780851511528
522,9780851511368
523,9780851516264
524,9780851510422
525,9781850789857
526,9781848711396
527,851515266
528,9780851516912
529,851510353
530,851511945
531,9780851518312
532,9780851514871
533,9781842911648
534,9781904074236
535,9781300087670
536,None
537,None
538,None
539,None
540,090171089X
541,1851741313
542,9781870404150
543,9780471465027
544,9780736913188
545,9780707804477
546,9781576581995
547,9780785264699
548,9780140449143
549,9780415187886
550,9780385486637
551,9780007163182
552,9780007163182
553,9781780227399
554,571057063
555,9780849912917
556,9780571536320
557,9780874779370
558,9781782490609
559,421296305
560,9780764438714
561,9781138829541
562,9781292010755
563,9780199282470
564,9780199606405
565,9780997703351
566,9780140441659
567,9781907563881
568,9781906562038
569,9810466331
570,9780071821124
571,9780871404657
572,9780141018690
573,9780800797928
574,9781908154101
575,9781861341433
576,9780415221894
577,1889638056
578,9780684860084
579,800707575
580,877847657
581,9781576588345
582,9781922247544
583,9780571201136
584,9781591844693
585,9781844086825
586,9780830834945
587,9780830716906
588,9781848716797
589,9780415679824
590,9780141030586
591,None
592,9781449359362
593,9780801097713
594,9780976035756
595,9781842912195
596,768424275
597,9781472934284
598,9780199246168
599,9781850788249
600,9781850780458
601,9780853649496
602,9780856489563
603,9781933106816
604,9780061582066
605,9781854248176
606,9781844270514
607,9781911149118
608,9780062206527
609,9780232526974
610,9781563207310
611,None
612,9780564090860
613,9780564091362
614,9780564090860
615,9781898838586
616,9780957474376
617,None
618,None
619,None
620,9780974756219
621,9780465084999
622,9781502395764
623,9781441151117
624,9780500293003
625,340275642
626,9780141182674
627,9780310494188
628,9780684856360
629,9781433561139
630,9780393066562
631,9780007708451
632,9780802873484
633,9781847941107
634,9780875524184
635,9780310351801
636,9780241250990
637,9780830836598
638,9780199537822
639,9780091955106
640,9781847087157
641,None
642,9780199539246
643,9780340818862
644,9781608998173
645,9780394758435
646,9780006280354
647,9781422179710
648,9780802847997
649,9780099430896
650,9781847080561
651,9780007320967
652,9780099546597
653,9780830844494
654,9780349117317
655,9781856840255
656,9780995477803
657,9780854769902
658,9780781414425
659,9780851109909
660,9781418547288
661,9780567032300
662,9781843546610
663,085110584X
664,9781433552908
665,9780190229269
666,9781400204410
667,851103405
668,9780851106922
669,9781844740741
670,9780340332139
671,none
672,9781854240026
673,9780851111711
674,9780851112602
675,9780830812783
676,9780851104744
677,9781844743841
678,9780830836369
679,9780830816415
680,9781844743544
681,9780830836338
682,9781844744817
683,9780851107745
684,9780851116785
685,9780830812820
686,9781844741670
687,9780851115894
688,9780851119748
689,9780830816279
690,9780851111841
691,9781844740192
692,9781844741915
693,9781844743032
694,9780830827435
695,9780851111827
696,9780851104966
697,9780851115443
698,9780851115375
699,9781844740352
700,9780830834693
701,9780830816231
702,9780851109688
703,9780851119939
704,9780851119953
705,9780851108445
706,9781783593583
707,9780851111698
708,9781844745425
709,9780851108834
710,9781850780663
711,9780851111797
712,9781844740888
713,9780851115399
714,9780851119786
715,9780851112305
716,9780830816699
717,9780851107721
718,9780851115382
719,9780877843429
720,9780781433761
721,612608433045
722,9781434702036
723,9780781405782
724,76615012998
725,9781842913482
726,9781842914199
727,612608433748
728,9780781444286
729,9781842914045
730,9780227678886
731,9780781448475
732,9781555139483
733,9780781414999
734,9781434764881
735,9781434768513
736,9780781405027
737,11973
738,9781591858225
739,9780884196303
740,9780884195184
741,9780884194842
742,9781599790879
743,9780884194361
744,9780800791179
745,25986607906
746,9780800792008
747,9780800792893
748,9780800793036
749,9780800794453
750,9780800795405
751,9780800792831
752,9780800794910
753,9780800793104
754,9780800793951
755,9780800794255
756,9780884193821
757,9781621365419
758,9781591857891
759,9781599794549
760,9780884197348
761,9781591854708
762,9781591859598
763,9781599790701
764,9780884195474
765,9781599798530
766,9781616385842
767,9781599794532
768,9781616383701
769,9781599792460
770,9781616387365
771,9780884194873
772,9780884195757
773,9781591859925
774,9781591854135
775,9780884198383
776,9780884198345
777,9781599793511
778,9780824520397
779,9781856077262
780,9781856073196
781,9781856073875
782,9780824515614
783,9780976490616
784,9781882729005
785,9781433507786
786,9781433528484
787,9781581345193
788,9781581346084
789,9781433506321
790,9781856842228
791,9781581344127
792,9780863473654
793,9781862041547
794,9781852307851
795,9780802841735
796,9781893554580
797,9780853643852
798,9780802801166
799,9780802811981
800,9780802838643
801,9780853644125
802,9780853649007
803,9780802813398
804,9780802843098
805,9780853644392
806,9780980518719
807,9780947697464
808,9781883002015
809,9780956411419
810,9780863470851
811,9780863472190
812,9780863470950
813,9780781807920
814,9781565633049
815,9781856083119
816,9780836190878
817,9780987122018
818,9781586400071
819,9781843913726
820,9780953928309
821,9781842980194
822,9780709053002
823,9781416585633
824,9781439194805
825,9781558194748
826,9781563840876
827,9781562829223
828,9781571746535
829,9781898838296
830,9781902750262
831,9780872201323
832,9781898838883
833,9781871126143
834,9781856081269
835,9781871828658
836,9781879854925
837,9780155003781
838,9780836134759
839,9780947714239
840,9781856080071
841,9788983143693
842,9788983140678
843,9780241114131
844,9780241134672
845,9780962068119
846,9781852403263
847,9781852400156
848,9781852401825
849,9781852401740
850,9781852401412
851,9781852401740
852,9781852405052
853,9781852402181
854,9781852400538
855,9781852400040
856,9781852400514
857,9781852400521
858,9781852402600
859,9781852400521
860,9781852401306
861,9781852400163
862,9781852400361
863,9781852400361
864,9781852401771
865,9781852400002
866,9781852401443
867,9781852401443
868,9781852406561
869,9781852400279
870,9781852400538
871,9781852403034
872,9781852404000
873,9781852400026
874,9781852401146
875,9781852400927
876,9781852400057
877,9781852403805
878,9781852401870
879,9781852400859
880,9781852403430
881,9780851112817
882,9781852400163
883,9780949720849
884,9781859990360
885,9781859990353
886,9781859994092
887,9780862015848
888,9780862016357
889,9780862017132
890,9780862016890
891,9781859990155
892,9781859992661
893,9780862014209
894,9781859992258
895,9780862018948
896,9781859990353
897,9781859996430
898,9780862011956
899,9780862019549
900,9780862014209
901,X000DCYOUF
902,9780862014896
903,9780862019341
904,9780862016326
905,9780862013844
906,9780862017125
907,9780862019693
908,9780862016890
909,9780854215867
910,9781859995891
911,9780862019747
912,9780862017644
913,9781859995037
914,9781859991879
915,9781859996843
916,9781859992012
917,9781859990155
918,9780862015275
919,9781859994290
920,9781859990827
921,9780862018153
922,9780862019549
923,9781844275663
924,9781844275663
925,9780862015060
926,9780862018665
927,9781859996805
928,9780862018153
929,9780862017125
930,9780862018740
931,9780862017903
932,9781859992760
933,9780862016623
934,9781859992012
935,9781859992012
936,9781859992012
937,9781859992012
938,9780281062270
939,9780281060399
940,9780281056439
941,9780281045181
942,9780281070770
943,9780281038527
944,9780281045808
945,9780281055074
946,9780281049332
947,9780281044719
948,9780281041855
949,9780281049424
950,9780281054657
951,9781852401153
952,9780281049424
953,9780281053698
954,9780281043873
955,9780281045211
956,9780281044764
957,9780281043170
958,9780281042647
959,9780281048342
960,9780281041800
961,9780281044344
962,9780281043217
963,9780281044870
964,9780281047802
965,9780281064472
966,9780281053704
967,9780281045426
968,9780281062362
969,9780884196846
970,9780281042838
971,9780281058358
972,9780281048403
973,9780281049011
974,9780281040759
975,9780281057184
976,9780281054138
977,9780281052691
978,9780281053698
979,9780198269182
980,9780198266778
981,9780198240426
982,9780198236986
983,9780198240709
984,9780193436954
985,9780195297546
986,9780198338345
987,9780198264590
988,9780198750185
989,9780192830142
990,9780192876423
991,9780191435515
992,9780192876799
993,9780192852472
994,9780192860552
995,9780192851581
996,9780192828101
997,9780192831064
998,9780192891624
999,9780192821447
1000,9780192853349
1001,9780195103359
1002,9780192880338
1003,9780192853905
1004,XN770
1005,9781592760954
1006,E2740
1007,9780870293801
1008,9781570752452
1009,9781904172093
1010,9781911272595
1011,055105011X
1012,853631174
1013,851103154
1014,851115683
1015,9780745952246
1016,882704516
1017,9780307986030
1018,851103448
1019,None
1020,883681242
1021,946616043
1022,950672009
1023,860651975
1024,9780720804652
1025,851118402
1026,851118224
1027,851118690
1028,851118852
1029,851118844
1030,851116132
1031,851118704
1032,None
1033,9780946616770
1034,9780946616602
1035,9781872877051
1036,9781854243584
1037,903843331
1038,851118305
1039,9780972359603
1040,9781857922691
1041,851118070
1042,948188049
1043,9781854240040
1044,1882701011
1045,851514820
1046,9781876326029
1047,852110022
1048,9780310219231
1049,9780768422849
1050,939868466
1051,9780349116259
1052,9780830716906
1053,9780830716906
1054,851512348
1055,9780830748112
1056,9780971804036
1057,9789074319508
1058,9780340324691
1059,851118283
1060,851514537
1061,913573868
1062,9781561790432
1063,9780340391297
1064,9780340518236
1065,9781853453830
1066,090208867X
1067,9780340528358
1068,9780340175804
1069,9780340574102
1070,9781844745777
1071,802802923
1072,9780830718399
1073,9780830723768
1074,9781560436973
1075,9780800730703
1076,9780830734221
1077,9780281054817
1078,9780830723577
1079,9780830723577
1080,9780800757250
1081,9781908393067
1082,9781852404000
1083,9781584831037
1084,9781852404963
1085,9781852404390
1086,801070252
1087,9780800754679
1088,9780571225217
1089,9780891077992
1090,9780140436327
1091,9780281057931
1092,9780140159899
1093,None
1094,None
1095,None
1096,None
1097,None
1098,9780946616459
1099,9780340612118
1100,None
1101,None
1102,None
1103,720801117
1104,None
1105,None
1106,None
1107,281041245
1108,281041245
1109,9780857216267
1110,None
1111,None
1112,None
1113,None
1114,None
1115,None
1116,None
1117,None
1118,None
1119,None
1120,None
1121,None
1122,None
1123,None
1124,None
1125,None
1126,None
1127,None
1128,9780852342640
1129,9780875520162
1130,9781854242327
1131,9780334021025
1132,9780745968605
1133,None
1134,None
1135,None
1136,None
1137,None
1138,None
1139,None
1140,None
1141,None
1142,None
1143,None
1144,None
1145,None
1146,9780978556723
1147,9781897913673
1148,192115499
1149,None
1150,None
1151,None
1152,None
1153,None
1154,None
1155,None
1156,None
1157,None
1158,None
1159,None
1160,198246188
1161,None
1162,None
1163,None
1164,None
1165,9780857210494
1166,9781843404743
1167,9781933106816
1168,9780802863744
1169,9780276425073
1170,276002199
1171,276002172
1172,276002180
1173,9780465079964
1174,9781934030981
1175,9780240817897
1176,9781598635034
1177,9780199290970
1178,HBSG2
1179,HBSG2
1180,None
1181,9780735211711
1182,9780521098427
1183,9781781064986
1184,9781603865319
1185,9781843340652
1186,9781408187586
1187,9781526402349
1188,9780670921607
1189,9780753555194
1190,9780335225439
1191,9780007258918
1192,9788184000139
1193,6136192
1194,340233494
1195,9781854241627
1196,9780800799069
1197,827118
1198,20868804
1199,120300563
1200,20869207
1201,9780762421022
1202,9780007315109
